ID,Tax status,Tax class
11962,taxable,standard
14032,taxable,standard
14033,taxable,standard
14034,taxable,standard
14035,taxable,standard
14311,taxable,standard
14312,taxable,standard
14313,taxable,standard
14314,taxable,standard
14315,taxable,standard
14316,taxable,standard
14317,taxable,standard
14318,taxable,standard
14319,taxable,standard
14320,taxable,standard
14321,taxable,standard
14322,taxable,standard
14323,taxable,standard
14324,taxable,standard
14325,taxable,standard
14326,taxable,standard
14327,taxable,standard
14328,taxable,standard
14329,taxable,standard
14330,taxable,standard
14331,taxable,standard
14332,taxable,standard
14333,taxable,standard
14334,taxable,standard
14335,taxable,standard
14336,taxable,standard
14337,taxable,standard
14338,taxable,standard
14339,taxable,standard
14340,taxable,standard
14341,taxable,standard
14342,taxable,standard
14343,taxable,standard
14344,taxable,standard
14345,taxable,standard
14346,taxable,standard
14347,taxable,standard
14348,taxable,standard
14349,taxable,standard
14350,taxable,standard
14351,taxable,standard
14352,taxable,standard
14353,taxable,standard
14354,taxable,standard
14355,taxable,standard
14356,taxable,standard
14357,taxable,standard
14358,taxable,standard
14359,taxable,standard
14360,taxable,standard
14361,taxable,standard
14362,taxable,standard
14363,taxable,standard
14364,taxable,standard
14365,taxable,standard
14366,taxable,standard
14367,taxable,standard
14368,taxable,standard
14369,taxable,standard
14370,taxable,standard
14371,taxable,standard
14372,taxable,standard
14373,taxable,standard
14374,taxable,standard
14375,taxable,standard
14376,taxable,standard
14377,taxable,standard
14378,taxable,standard
14379,taxable,standard
14380,taxable,standard
14381,taxable,standard
14382,taxable,standard
14383,taxable,standard
14384,taxable,standard
14385,taxable,standard
14386,taxable,standard
14387,taxable,standard
14388,taxable,standard
14389,taxable,standard
14390,taxable,standard
14391,taxable,standard
14392,taxable,standard
14393,taxable,standard
14394,taxable,standard
14395,taxable,standard
14396,taxable,standard
14397,taxable,standard
14398,taxable,standard
14399,taxable,standard
14400,taxable,standard
14401,taxable,standard
14402,taxable,standard
14403,taxable,standard
14404,taxable,standard
14405,taxable,standard
14406,taxable,standard
14407,taxable,standard
14408,taxable,standard
14409,taxable,standard
14410,taxable,standard
14411,taxable,standard
14412,taxable,standard
14413,taxable,standard
14414,taxable,standard
14415,taxable,standard
14416,taxable,standard
14417,taxable,standard
14418,taxable,standard
14419,taxable,standard
14420,taxable,standard
14421,taxable,standard
14422,taxable,standard
14423,taxable,standard
14424,taxable,standard
14425,taxable,standard
14426,taxable,standard
14427,taxable,standard
14428,taxable,standard
14429,taxable,standard
14430,taxable,standard
14431,taxable,standard
14432,taxable,standard
14433,taxable,standard
14434,taxable,standard
14435,taxable,standard
14436,taxable,standard
14437,taxable,standard
14438,taxable,standard
14439,taxable,standard
14440,taxable,standard
14441,taxable,standard
14442,taxable,standard
14443,taxable,standard
14444,taxable,standard
14445,taxable,standard
14446,taxable,standard
14447,taxable,standard
14448,taxable,standard
