SKU,Tax status,Tax class
980ecd059122,taxable,standard
c4ca4238a0b9,taxable,standard
c81e728d9d4c,taxable,standard
a87ff679a2f3,taxable,standard
1679091c5a88,taxable,standard
8f14e45fceea,taxable,standard
45c48cce2e2d,taxable,standard
6512bd43d9ca,taxable,standard
c20ad4d76fe9,taxable,standard
c51ce410c124,taxable,standard
aab3238922bc,taxable,standard
70efdf2ec9b0,taxable,standard
1f0e3dad9990,taxable,standard
98f137082101,taxable,standard
3c59dc048e88,taxable,standard
b6d767d2f8ed,taxable,standard
37693cfc7480,taxable,standard
4e732ced3463,taxable,standard
02e74f10e032,taxable,standard
33e75ff09dd6,taxable,standard
6ea9ab1baa0e,taxable,standard
c16a5320fa47,taxable,standard
6364d3f0f495,taxable,standard
182be0c5cdcd,taxable,standard
e369853df766,taxable,standard
1c383cd30b7c,taxable,standard
19ca14e7ea63,taxable,standard
a5bfc9e07964,taxable,standard
a5771bce93e2,taxable,standard
d67d8ab4f4c1,taxable,standard
d645920e395f,taxable,standard
3416a75f4cea,taxable,standard
17e62166fc85,taxable,standard
f7177163c833,taxable,standard
6c8349cc7260,taxable,standard
d9d4f495e875,taxable,standard
642e92efb794,taxable,standard
f457c545a9de,taxable,standard
c0c7c76d30bd,taxable,standard
9a1158154dfa,taxable,standard
d82c8d1619ad,taxable,standard
a684eceee76f,taxable,standard
b53b3a3d6ab9,taxable,standard
9f61408e3afb,taxable,standard
72b32a1f754b,taxable,standard
093f65e080a2,taxable,standard
072b030ba126,taxable,standard
7f39f8317fbd,taxable,standard
44f683a84163,taxable,standard
ea5d2f1c4608,taxable,standard
fc490ca45c00,taxable,standard
3295c76acbf4,taxable,standard
735b90b45681,taxable,standard
a3f390d88e4c,taxable,standard
14bfa6bb1487,taxable,standard
7cbbc409ec99,taxable,standard
e2c420d928d4,taxable,standard
d2ddea18f006,taxable,standard
ad61ab143223,taxable,standard
d09bf41544a3,taxable,standard
fbd7939d6749,taxable,standard
28dd2c7955ce,taxable,standard
35f4a8d465e6,taxable,standard
d1fe173d08e9,taxable,standard
f033ab37c302,taxable,standard
43ec517d68b6,taxable,standard
9778d5d219c5,taxable,standard
fe9fc289c3ff,taxable,standard
68d30a959472,taxable,standard
93db85ed909c,taxable,standard
7647966b7343,taxable,standard
e2ef524fbf3d,taxable,standard
ed3d2c21991e,taxable,standard
ac627ab1ccbd,taxable,standard
38b3eff8baf5,taxable,standard
ec8956637a99,taxable,standard
c9e1074f5b3f,taxable,standard
65b9eea6e1cc,taxable,standard
f0935e4cd592,taxable,standard
a97da629b098,taxable,standard
a3c65c297427,taxable,standard
2723d092b638,taxable,standard
5f93f983524d,taxable,standard
698d51a19d8a,taxable,standard
7f6ffaa6bb0b,taxable,standard
c45147dee729,taxable,standard
eb160de1de89,taxable,standard
da4fb5c6e93e,taxable,standard
4c56ff4ce4aa,taxable,standard
76dc611d6eba,taxable,standard
d1f491a404d6,taxable,standard
1afa34a7f984,taxable,standard
65ded5353c5e,taxable,standard
9fc3d7152ba9,taxable,standard
02522a2b2726,taxable,standard
7f1de29e6da1,taxable,standard
42a0e188f503,taxable,standard
3988c7f88ebc,taxable,standard
013d407166ec,taxable,standard
e00da03b685a,taxable,standard
1385974ed590,taxable,standard
0f28b5d49b30,taxable,standard
903ce9225fca,taxable,standard
0a09c8844ba8,taxable,standard
2b24d495052a,taxable,standard
a5e00132373a,taxable,standard
8d5e957f2978,taxable,standard
47d1e990583c,taxable,standard
f2217062e9a3,taxable,standard
7ef605fc8dba,taxable,standard
a8f15eda80c5,taxable,standard
37a749d808e4,taxable,standard
b3e3e393c77e,taxable,standard
1d7f7abc18fc,taxable,standard
2a79ea27c279,taxable,standard
1c9ac0159c94,taxable,standard
6c4b761a28b7,taxable,standard
06409663226a,taxable,standard
140f6969d521,taxable,standard
b73ce398c39f,taxable,standard
bd4c9ab730f5,taxable,standard
0777d5c17d40,taxable,standard
fa7cdfad1a5a,taxable,standard
9766527f2b5d,taxable,standard
7e7757b1e12a,taxable,standard
006f52e9102a,taxable,standard
3.64E+11,taxable,standard
149e9677a598,taxable,standard
a4a042cf4fd6,taxable,standard
f7e6c85504ce,taxable,standard
bf8229696f7a,taxable,standard
82161242827b,taxable,standard
38af86134b65,taxable,standard
8f8551796779,taxable,standard
8f53295a7387,taxable,standard
045117b0e0a1,taxable,standard
fc2213097460,taxable,standard
4c5bde74a8f1,taxable,standard
cedebb6e872f,taxable,standard
6cdd60ea0045,taxable,standard
eecca5b6365d,taxable,standard
9872ed9fc22f,taxable,standard
31fefc0e570c,taxable,standard
9dcb88e01376,taxable,standard
a2557a7b2e94,taxable,standard
cfecdb276f63,taxable,standard
0aa1883c6411,taxable,standard
58a2fc6ed39f,taxable,standard
bd686fd640be,taxable,standard
a597e50502f5,taxable,standard
0336dcbab05b,taxable,standard
084b6fbb1072,taxable,standard
84d9ee44e457,taxable,standard
3644a684f98e,taxable,standard
757b505cfd34,taxable,standard
854d6fae5ee4,taxable,standard
e2c0be24560d,taxable,standard
274ad4786c3a,taxable,standard
eae27d77ca20,taxable,standard
7eabe3a1649f,taxable,standard
69adc1e107f7,taxable,standard
091d584fced3,taxable,standard
b1d10e7bafa4,taxable,standard
6f3ef77ac0e3,taxable,standard
eb163727917c,taxable,standard
1534b76d325a,taxable,standard
979d472a8480,taxable,standard
ca46c1b9512a,taxable,standard
3b8a614226a9,taxable,standard
45fbc6d3e05e,taxable,standard
63dc7ed1010d,taxable,standard
e96ed478dab8,taxable,standard
c0e190d8267e,taxable,standard
ec8ce6abb3e9,taxable,standard
060ad9248994,taxable,standard
bcbe3365e6ac,taxable,standard
13fe9d84310e,taxable,standard
9b04d152845e,taxable,standard
be83ab3ecd0d,taxable,standard
e165421110ba,taxable,standard
289dff07669d,taxable,standard
577ef1154f32,taxable,standard
01161aaa0b6d,taxable,standard
539fd53b59e3,taxable,standard
ac1dd209cbcc,taxable,standard
555d6702c950,taxable,standard
f340f1b1f65b,taxable,standard
e4a6222cdb5b,taxable,standard
cb70ab375662,taxable,standard
9188905e74c2,taxable,standard
0266e33d3f54,taxable,standard
38db3aed920c,taxable,standard
6c9882bbac1c,taxable,standard
19f3cd308f14,taxable,standard
03c6b06952c7,taxable,standard
c24cd76e1ce4,taxable,standard
c52f1bd66cc1,taxable,standard
d96409bf8942,taxable,standard
502e4a16930e,taxable,standard
cfa0860e83a4,taxable,standard
a4f23670e183,taxable,standard
b1a59b315fc9,taxable,standard
36660e59856b,taxable,standard
8c19f571e251,taxable,standard
d6baf65e0b24,taxable,standard
e56954b4f634,taxable,standard
f7664060cc52,taxable,standard
eda80a3d5b34,taxable,standard
8f121ce07d74,taxable,standard
06138bc5af60,taxable,standard
39059724f73a,taxable,standard
7a614fd06c32,taxable,standard
4734ba6f3de8,taxable,standard
d947bf06a885,taxable,standard
63923f49e524,taxable,standard
db8e1af0cb3a,taxable,standard
20f07591c6fc,taxable,standard
07cdfd23373b,taxable,standard
d395771085aa,taxable,standard
92c8c96e4c37,taxable,standard
e3796ae83883,taxable,standard
0f49c89d1e72,taxable,standard
46ba9f2a6976,taxable,standard
0e01938fc48a,taxable,standard
16a5cdae362b,taxable,standard
918317b57931,taxable,standard
48aedb8880ca,taxable,standard
f90f2aca5c64,taxable,standard
9c838d2e45b2,taxable,standard
1700002963a4,taxable,standard
53c3bce66e43,taxable,standard
6883966fd8f9,taxable,standard
49182f81e6a1,taxable,standard
d296c101daa8,taxable,standard
37bc2f75bf1b,taxable,standard
496e05e1aea0,taxable,standard
b2eb73490357,taxable,standard
06eb61b839a0,taxable,standard
9dfcd5e558df,taxable,standard
950a4152c2b4,taxable,standard
158f3069a435,taxable,standard
758874998f5b,taxable,standard
ad13a2a07ca4,taxable,standard
3fe94a002317,taxable,standard
432aca3a1e34,taxable,standard
320722549d17,taxable,standard
caf1a3dfb505,taxable,standard
5737c6ec2e07,taxable,standard
bc6dc48b743d,taxable,standard
f2fc990265c7,taxable,standard
89f0fd5c927d,taxable,standard
a666587afda6,taxable,standard
b83aac23b952,taxable,standard
cd00692c3bfe,taxable,standard
6faa8040da20,taxable,standard
2f2b265625d7,taxable,standard
f9b902fc3289,taxable,standard
6855456e2fe4,taxable,standard
357a6fdf7642,taxable,standard
819f46e52c25,taxable,standard
04025959b191,taxable,standard
3dd48ab31d01,taxable,standard
58238e9ae2dd,taxable,standard
3ad7c2ebb96f,taxable,standard
d81f9c1be2e0,taxable,standard
13f9896df612,taxable,standard
c5ff2543b53f,taxable,standard
01386bd6d8e0,taxable,standard
0bb4aec17105,taxable,standard
9de6d14fff98,taxable,standard
efe937780e95,taxable,standard
371bce7dc838,taxable,standard
138bb0696595,taxable,standard
8dd48d6a2e2c,taxable,standard
82cec96096d4,taxable,standard
6c524f9d5d70,taxable,standard
fb7b9ffa5462,taxable,standard
aa942ab2bfa6,taxable,standard
c058f544c737,taxable,standard
e7b24b112a44,taxable,standard
52720e003547,taxable,standard
c3e878e27f52,taxable,standard
00411460f7c9,taxable,standard
bac9162b47c5,taxable,standard
9be40cee5b0e,taxable,standard
5ef698cd9fe6,taxable,standard
05049e90fa4f,taxable,standard
cf004fdc76fa,taxable,standard
0c74b7f78409,taxable,standard
d709f38ef758,taxable,standard
41f1f19176d3,taxable,standard
24b16fede9a6,taxable,standard
ffd52f3c7e12,taxable,standard
ad972f10e080,taxable,standard
f61d6947467c,taxable,standard
bca82e41ee7b,taxable,standard
00ec53c4682d,taxable,standard
4f6ffe13a5d7,taxable,standard
beed13602b9b,taxable,standard
0584ce565c82,taxable,standard
dc912a253d1e,taxable,standard
8efb100a295c,taxable,standard
d9fc5b73a8d7,taxable,standard
a01a0380ca3c,taxable,standard
5a4b25aaed25,taxable,standard
70c639df5e30,taxable,standard
f8c1f23d6a8d,taxable,standard
e46de7e1bcaa,taxable,standard
352fe25daf68,taxable,standard
18d8042386b7,taxable,standard
4f4adcbf8c6f,taxable,standard
bbcbff5c1f1d,taxable,standard
f4f6dce2f3a0,taxable,standard
0d0fd7c6e093,taxable,standard
a96b65a721e5,taxable,standard
1068c6e4c805,taxable,standard
17d63b1625c8,taxable,standard
b9228e0962a7,taxable,standard
0deb1c548143,taxable,standard
66808e327dc7,taxable,standard
42e7aaa88b48,taxable,standard
8fe0093bb30d,taxable,standard
41ae36ecb9b3,taxable,standard
7eacb532570f,taxable,standard
e0c641195b27,taxable,standard
f85454e8279b,taxable,standard
faa9afea49ef,taxable,standard
3c7781a36bcd,taxable,standard
25b2822c2f5a,taxable,standard
6ecbdd6ec859,taxable,standard
18997733ec25,taxable,standard
8d7d8ee069cb,taxable,standard
75fc093c0ee7,taxable,standard
f74909ace68e,taxable,standard
66368270ffd5,taxable,standard
248e84433679,taxable,standard
019d385eb676,taxable,standard
2421fcb1263b,taxable,standard
fccb60fb512d,taxable,standard
1651cf0d2f73,taxable,standard
eed5af6add95,taxable,standard
a8abb4bb284b,taxable,standard
15d4e891d784,taxable,standard
c203d8a15161,taxable,standard
9a96876e2f8f,taxable,standard
9b70e8fe62e4,taxable,standard
d61e4bbd6393,taxable,standard
f5f8590cd58a,taxable,standard
941e1aaaba58,taxable,standard
9431c87f273e,taxable,standard
49ae49a23f67,taxable,standard
e44fea3bec53,taxable,standard
821fa74b50ba,taxable,standard
250cf8b51c77,taxable,standard
42998cf32d55,taxable,standard
d07e70efcfab,taxable,standard
7fe1f8abaad0,taxable,standard
98b297950041,taxable,standard
0353ab4cbed5,taxable,standard
51d92be1c60d,taxable,standard
428fca9bc192,taxable,standard
f1b6f2857fb6,taxable,standard
68ce199ec2c5,taxable,standard
e836d813fd18,taxable,standard
ab817c9349cf,taxable,standard
877a9ba7a98f,taxable,standard
dc6a6489640c,taxable,standard
26337353b796,taxable,standard
8e6b42f1644e,taxable,standard
ef575e8837d0,taxable,standard
2050e03ca119,taxable,standard
25ddc0f8c9d3,taxable,standard
5ef0b4eba35a,taxable,standard
598b3e71ec37,taxable,standard
cfee398643cb,taxable,standard
d18f655c3fce,taxable,standard
6ea2ef7311b4,taxable,standard
9461cce28ebe,taxable,standard
f770b62bc8f4,taxable,standard
e1e32e235eee,taxable,standard
eba0dc302bcd,taxable,standard
854d9fca60b4,taxable,standard
c410003ef13d,taxable,standard
559cb990c9df,taxable,standard
55a7cf9c71f1,taxable,standard
1be3bc32e656,taxable,standard
35051070e572,taxable,standard
b534ba68236b,taxable,standard
7380ad8a6732,taxable,standard
05f971b5ec19,taxable,standard
3cf166c6b73f,taxable,standard
cee631121c2e,taxable,standard
5b69b9cb8306,taxable,standard
b5b41fac0361,taxable,standard
285e19f20bed,taxable,standard
b337e84de875,taxable,standard
e8c0653fea13,taxable,standard
ff4d5fbbafdf,taxable,standard
2d6cc4b2d139,taxable,standard
389bc7bb1e1c,taxable,standard
e2230b853516,taxable,standard
087408522c31,taxable,standard
a760880003e7,taxable,standard
10a7cdd970fe,taxable,standard
3dc4876f3f08,taxable,standard
59b90e1005a2,taxable,standard
2b8a61594b1f,taxable,standard
f3f27a324736,taxable,standard
38913e1d6a7b,taxable,standard
ebd9629fc3ae,taxable,standard
63538fe6ef33,taxable,standard
cf67355a3333,taxable,standard
07563a3fe3bb,taxable,standard
53fde96fcc4b,taxable,standard
2bb232c0b13c,taxable,standard
ba2fd310dcaa,taxable,standard
69421f032498,taxable,standard
85422afb467e,taxable,standard
13f320e7b5ea,taxable,standard
f4be00279ee2,taxable,standard
37f0e884fbad,taxable,standard
d64a340bcb63,taxable,standard
0fcbc61acd04,taxable,standard
298f95e1bf91,taxable,standard
df877f386575,taxable,standard
c399862d3b9d,taxable,standard
33e8075e9970,taxable,standard
65658fde58ab,taxable,standard
5ea1649a3133,taxable,standard
7bcdf75ad237,taxable,standard
5737034557ef,taxable,standard
9b72e31dac81,taxable,standard
16c222aa1989,taxable,standard
7dcd340d84f7,taxable,standard
81448138f5f1,taxable,standard
97e8527feaf7,taxable,standard
647bba344396,taxable,standard
ed265bc903a5,taxable,standard
c75b6f114c23,taxable,standard
ccb1d45fb76f,taxable,standard
01f78be6f7ca,taxable,standard
7f24d240521d,taxable,standard
94c7bb58efc3,taxable,standard
f387624df552,taxable,standard
5e388103a391,taxable,standard
15de21c670ae,taxable,standard
11b921ef080f,taxable,standard
6e2713a6efee,taxable,standard
1bb91f73e9d3,taxable,standard
3a0772443a07,taxable,standard
a9a6653e4897,taxable,standard
58ae749f25ed,taxable,standard
4e4b5fbbbb60,taxable,standard
8eefcfdf5990,taxable,standard
1728efbda816,taxable,standard
cbcb58ac2e49,taxable,standard
db85e2590b61,taxable,standard
99c5e07b4d5d,taxable,standard
dd458505749b,taxable,standard
8b16ebc056e6,taxable,standard
a86c450b76fb,taxable,standard
c9892a989183,taxable,standard
e6b4b2a746ed,taxable,standard
e5f6ad6ce374,taxable,standard
f0e52b27a7a5,taxable,standard
ffeabd223de0,taxable,standard
a7aeed747141,taxable,standard
fde9264cf376,taxable,standard
a8849b052492,taxable,standard
258be18e31c8,taxable,standard
069d3bb002ac,taxable,standard
a9a1d5317a33,taxable,standard
605ff764c617,taxable,standard
766ebcd59621,taxable,standard
daca41214b39,taxable,standard
30bb3825e8f6,taxable,standard
08b255a5d42b,taxable,standard
3493894fa4ea,taxable,standard
dbe272bab69f,taxable,standard
acc3e0404646,taxable,standard
076a0c97d09c,taxable,standard
04ecb1fa2850,taxable,standard
b2eeb7362ef8,taxable,standard
08c5433a6013,taxable,standard
6aca97005c68,taxable,standard
3435c378bb76,taxable,standard
d490d7b45762,taxable,standard
b2f627fff19f,taxable,standard
c3992e9a68c5,taxable,standard
d86ea612dec9,taxable,standard
9cf81d8026a9,taxable,standard
c361bc7b2c03,taxable,standard
dc82d632c9fc,taxable,standard
996a7fa078cc,taxable,standard
d7a728a67d90,taxable,standard
00ac8ed3b432,taxable,standard
8ebda540cbcc,taxable,standard
f76a89f0cb91,taxable,standard
f29c21d4897f,taxable,standard
851ddf5058cf,taxable,standard
58d4d1e7b1e9,taxable,standard
3871bd640121,taxable,standard
a733fa9b25f3,taxable,standard
48ab2f9b4595,taxable,standard
233509073ed3,taxable,standard
45645a27c4f1,taxable,standard
185c29dc2432,taxable,standard
42e77b63637a,taxable,standard
051e4e127b92,taxable,standard
9cc138f8dc04,taxable,standard
b7bb35b9c6ca,taxable,standard
abd815286ba1,taxable,standard
26dd0dbc6e3f,taxable,standard
6766aa2750c1,taxable,standard
6a10bbd480e4,taxable,standard
c5ab0bc60ac7,taxable,standard
4ffce04d92a4,taxable,standard
67e103b0761e,taxable,standard
291597a100aa,taxable,standard
9b698eb3105b,taxable,standard
8c7bbbba95c1,taxable,standard
5e9f92a01c98,taxable,standard
0ff39bbbf981,taxable,standard
303ed4c69846,taxable,standard
443cb001c138,taxable,standard
55b37c5c270e,taxable,standard
884d247c6f65,taxable,standard
55743cc0393b,taxable,standard
30ef30b64204,taxable,standard
eaae339c4d89,taxable,standard
ab233b682ec3,taxable,standard
2f37d10131f2,taxable,standard
0ff8033cf943,taxable,standard
68264bdb65b9,taxable,standard
3a066bda8c96,taxable,standard
be3159ad0456,taxable,standard
8757150decbd,taxable,standard
2291d2ec3b30,taxable,standard
84117275be99,taxable,standard
fae0b27c451c,taxable,standard
b5dc4e5d9b49,taxable,standard
192fc044e74d,taxable,standard
5c0492567492,taxable,standard
17c276c8e723,taxable,standard
5dd9db5e033d,taxable,standard
2dea61eed4bc,taxable,standard
9f396fe44e7c,taxable,standard
0d7de1aca929,taxable,standard
8fecb20817b3,taxable,standard
dc6a70712a25,taxable,standard
71a3cb155f8d,taxable,standard
9fe8593a8a33,taxable,standard
ca9c267dad03,taxable,standard
fccb3cdc9acc,taxable,standard
1595af643501,taxable,standard
08d98638c6fc,taxable,standard
24681928425f,taxable,standard
556f391937df,taxable,standard
3328bdf9a4b9,taxable,standard
109a0ca3bc27,taxable,standard
7f5d04d189df,taxable,standard
07a96b1f6109,taxable,standard
c06d06da9666,taxable,standard
e4bb4c5173c2,taxable,standard
0cb929eae7a4,taxable,standard
8a0e1141fd37,taxable,standard
99bcfcd754a9,taxable,standard
afd4836712c5,taxable,standard
e5841df2166d,taxable,standard
b4a528955b84,taxable,standard
b1eec33c726a,taxable,standard
d6c651ddcd97,taxable,standard
f64eac11f2cd,taxable,standard
4a47d2983c8b,taxable,standard
9c82c7143c10,taxable,standard
500e75a036dc,taxable,standard
ae0eb3eed39d,taxable,standard
1ecfb463472e,taxable,standard
e70611883d27,taxable,standard
6081594975a7,taxable,standard
19bc916108fc,taxable,standard
07c5807d0d92,taxable,standard
d14220ee66ae,taxable,standard
8df707a948fa,taxable,standard
e7f8a7fb0b77,taxable,standard
788d98690553,taxable,standard
50c3d7614917,taxable,standard
2afe4567e1bf,taxable,standard
5f2c22cb4a53,taxable,standard
aba3b6fd5d18,taxable,standard
c8ed21db4f67,taxable,standard
08419be89740,taxable,standard
7f1171a78ce0,taxable,standard
82f2b308c3b0,taxable,standard
0d3180d672e0,taxable,standard
fb89705ae6d7,taxable,standard
d4c2e4a3297f,taxable,standard
5751ec3e9a4f,taxable,standard
59c33016884a,taxable,standard
ba3866600c35,taxable,standard
e995f98d5696,taxable,standard
6cd67d9b6f01,taxable,standard
6bc24fc1ab65,taxable,standard
217eedd1ba8c,taxable,standard
df263d996281,taxable,standard
edfbe1afcf92,taxable,standard
2e65f2f2fdaf,taxable,standard
e94550c93cd7,taxable,standard
5c572eca0505,taxable,standard
0537fb40a68c,taxable,standard
185e65bc4058,taxable,standard
e49b8b4053df,taxable,standard
912d2b1c7b28,taxable,standard
a1d33d0dfec8,taxable,standard
6f2268bd1d3d,taxable,standard
ccb098966221,taxable,standard
2823f4797102,taxable,standard
470e7a4f017a,taxable,standard
bf62768ca46b,taxable,standard
fa14d4fe2f19,taxable,standard
2ca65f58e35d,taxable,standard
06997f04a7db,taxable,standard
eefc9e10ebdc,taxable,standard
5807a685d1a9,taxable,standard
959a557f5f6b,taxable,standard
f2201f5191c4,taxable,standard
3a835d321575,taxable,standard
288cc0ff0228,taxable,standard
4ea06fbc83cd,taxable,standard
e57c6b956a65,taxable,standard
e07413354875,taxable,standard
fc8001f834f6,taxable,standard
61b4a64be663,taxable,standard
3621f1454cac,taxable,standard
c15da1f2b5e5,taxable,standard
68053af2923e,taxable,standard
2dace78f80bc,taxable,standard
df7f28ac89ca,taxable,standard
96ea64f3a1aa,taxable,standard
da8ce53cf024,taxable,standard
1141938ba2c2,taxable,standard
1aa48fc4880b,taxable,standard
846c260d715e,taxable,standard
d58072be2820,taxable,standard
6e7b33fdea3a,taxable,standard
a8ecbabae151,taxable,standard
32b30a250abd,taxable,standard
670e8a43b246,taxable,standard
81e74d678581,taxable,standard
e0cf1f47118d,taxable,standard
96b9bff013ac,taxable,standard
71ad16ad2c4d,taxable,standard
43fa7f58b7ea,taxable,standard
31839b036f63,taxable,standard
f0adc8838f4b,taxable,standard
3b5dca501ee1,taxable,standard
e2a2dcc36a08,taxable,standard
4558dbb6f6f8,taxable,standard
afda332245e2,taxable,standard
d554f7bb7be4,taxable,standard
795c7a7a5ec6,taxable,standard
fa3a3c407f82,taxable,standard
c2626d850c80,taxable,standard
ce78d1da254c,taxable,standard
8e82ab7243b7,taxable,standard
e0ec453e28e0,taxable,standard
7250eb93b3c1,taxable,standard
013a006f03db,taxable,standard
301ad0e3bd5c,taxable,standard
4d5b995358e7,taxable,standard
ab88b15733f5,taxable,standard
b0b183c207f4,taxable,standard
f9028faec74b,taxable,standard
8f7d807e1f53,taxable,standard
02a32ad2669e,taxable,standard
fc3cf452d3da,taxable,standard
3d8e28caf901,taxable,standard
e97ee2054def,taxable,standard
b86e8d03fe99,taxable,standard
84f7e69969de,taxable,standard
f4552671f890,taxable,standard
362e80d4df43,taxable,standard
fe8c15fed5f8,taxable,standard
1efa39bcaec6,taxable,standard
92fb0c6d1758,taxable,standard
22ac3c5a5bf0,taxable,standard
aff1621254f7,taxable,standard
f7e9050c92a8,taxable,standard
addfa9b7e234,taxable,standard
8c235f89a814,taxable,standard
847cc55b7032,taxable,standard
a67f09680941,taxable,standard
2a084e55c87b,taxable,standard
fc49306d9760,taxable,standard
f9a40a4780f5,taxable,standard
5ec91aac30ea,taxable,standard
19b650660b25,taxable,standard
1fc214004c94,taxable,standard
3b3dbaf68507,taxable,standard
ca8155f4d27f,taxable,standard
ede7e2b6d13a,taxable,standard
dd45045f8c68,taxable,standard
49c9adb18e44,taxable,standard
22fb0cee7e1f,taxable,standard
aeb3135b436a,taxable,standard
43feaeeecd7b,taxable,standard
98d6f58ab0da,taxable,standard
51ef186e18dc,taxable,standard
4b0a59ddf11c,taxable,standard
67d16d002010,taxable,standard
352407221afb,taxable,standard
dd8eb9f23fbd,taxable,standard
d516b13671a4,taxable,standard
1f50893f80d6,taxable,standard
7504adad8bb9,taxable,standard
6c3cf77d5282,taxable,standard
210f760a89db,taxable,standard
170c94497849,taxable,standard
0efe32849d23,taxable,standard
704afe073992,taxable,standard
7ce3284b743a,taxable,standard
0a113ef6b618,taxable,standard
07871915a810,taxable,standard
024d7f84fff1,taxable,standard
cfbce4c1d7c4,taxable,standard
c2aee86157b4,taxable,standard
d56b9fc4b0f1,taxable,standard
4b0250793549,taxable,standard
20aee3a5f464,taxable,standard
061412e4a03c,taxable,standard
5705e1164a83,taxable,standard
a64c94baaf36,taxable,standard
01882513d5fa,taxable,standard
acf4b89d3d50,taxable,standard
b6a1085a27ab,taxable,standard
aa169b49b583,taxable,standard
f57a2f557b09,taxable,standard
c8fbbc86abe8,taxable,standard
621461af90ca,taxable,standard
8b6dd7db9af4,taxable,standard
a4300b002bcf,taxable,standard
e205ee2a5de4,taxable,standard
b56a18e0eacd,taxable,standard
2a9d121cd9c3,taxable,standard
8b5040a8a5ba,taxable,standard
7634ea65a4e6,taxable,standard
24896ee4c652,taxable,standard
23ce1851341e,taxable,standard
da0d1111d2dc,taxable,standard
1e056d2b0ebd,taxable,standard
3e89ebdb49f7,taxable,standard
6d0f846348a8,taxable,standard
430c3626b879,taxable,standard
ccc0aa1b81bf,taxable,standard
c4015b7f368e,taxable,standard
bea5955b3083,taxable,standard
7fa732b517cb,taxable,standard
cbb6a3b884f4,taxable,standard
1f4477bad7af,taxable,standard
d045c59a90d7,taxable,standard
0d0871f0806e,taxable,standard
1cc3633c579a,taxable,standard
9f53d83ec069,taxable,standard
d2ed45a52bc0,taxable,standard
043c3d7e489c,taxable,standard
4daa3db355ef,taxable,standard
e820a45f1dfc,taxable,standard
90794e3b050f,taxable,standard
b7892fb3c2f0,taxable,standard
74bba22728b6,taxable,standard
3df1d4b96d89,taxable,standard
8d6dc35e506f,taxable,standard
92262bf907af,taxable,standard
b55ec28c52d5,taxable,standard
2f885d0fbe2e,taxable,standard
64223ccf70bb,taxable,standard
4b6538a44a1d,taxable,standard
c8c41c4a1867,taxable,standard
c4b31ce7d95c,taxable,standard
58e4d44e550d,taxable,standard
3cef96dcc9b8,taxable,standard
a3d68b461bd9,taxable,standard
1c1d4df596d0,taxable,standard
e6cb2a3c1443,taxable,standard
9232fe81225b,taxable,standard
6395ebd0f4b4,taxable,standard
ef4e3b775c93,taxable,standard
168908dd3227,taxable,standard
2ba596643cbb,taxable,standard
d240e3d38a88,taxable,standard
0f840be9b8db,taxable,standard
437d7d1d9791,taxable,standard
d707329bece4,taxable,standard
5c936263f342,taxable,standard
1ce927f87586,taxable,standard
8065d07da4a7,taxable,standard
eeb69a3cb923,taxable,standard
4e0cb6fb5fb4,taxable,standard
6cfe0e6127fa,taxable,standard
89fcd07f20b6,taxable,standard
6602294be910,taxable,standard
ca75910166da,taxable,standard
4311359ed496,taxable,standard
92977ae4d2ba,taxable,standard
9c01802ddb98,taxable,standard
287e03db1d99,taxable,standard
fec8d47d412b,taxable,standard
6aab1270668d,taxable,standard
d93ed5b6db83,taxable,standard
9908279ebbf1,taxable,standard
a1140a3d0df1,taxable,standard
4fac9ba11514,taxable,standard
860320be12a1,taxable,standard
7b13b2203029,taxable,standard
934815ad542a,taxable,standard
2bcab9d935d2,taxable,standard
0b8aff043861,taxable,standard
ec5aa0b78460,taxable,standard
9ab0d8843173,taxable,standard
b706835de79a,taxable,standard
a9b7ba70783b,taxable,standard
fba9d88164f3,taxable,standard
1e48c4420b70,taxable,standard
7f975a56c761,taxable,standard
766d856ef1a6,taxable,standard
03e0704b5690,taxable,standard
995e1fda4a2b,taxable,standard
e17184bcb70d,taxable,standard
bdb106a0560c,taxable,standard
a34bacf839b9,taxable,standard
83fa5a432ae5,taxable,standard
eddb904a6db7,taxable,standard
6d70cb65d152,taxable,standard
27ed0fb950b8,taxable,standard
537d9b6c9272,taxable,standard
d736bb10d83a,taxable,standard
9ac403da7947,taxable,standard
b9141aff1412,taxable,standard
1019c8091693,taxable,standard
a0e2a2c563d5,taxable,standard
522a9ae9a998,taxable,standard
43baa6762fa8,taxable,standard
731c83db8d2f,taxable,standard
03f544613917,taxable,standard
8b4066554730,taxable,standard
db2b4182156b,taxable,standard
a5e0ff62be0b,taxable,standard
a01607097011,taxable,standard
aace49c7d807,taxable,standard
4da04049a062,taxable,standard
af21d0c97db2,taxable,standard
c9f95a0a5af0,taxable,standard
e58cc5ca9427,taxable,standard
b9d487a30398,taxable,standard
8f1d43620bc6,taxable,standard
2cbca44843a8,taxable,standard
b59c67bf196a,taxable,standard
20d135f0f281,taxable,standard
9c3b1830513c,taxable,standard
d6ef5f7fa914,taxable,standard
3a15c7d0bbe6,taxable,standard
c7635bfd9924,taxable,standard
c21002f464c5,taxable,standard
678a1491514b,taxable,standard
fe709c654eac,taxable,standard
571e0f7e2d99,taxable,standard
fd06b8ea02fe,taxable,standard
8248a99e81e7,taxable,standard
f7f580e11d00,taxable,standard
208e43f0e45c,taxable,standard
4588e674d3f0,taxable,standard
a1d50185e742,taxable,standard
df0aab058ce1,taxable,standard
55b1927fdafe,taxable,standard
e8b1cbd05f6e,taxable,standard
285f89b802bc,taxable,standard
e22312179bf4,taxable,standard
a8240cb8235e,taxable,standard
0c048b3a434e,taxable,standard
16e6a3326dd7,taxable,standard
884d79963bd8,taxable,standard
00e26af6ac3b,taxable,standard
a3fb4fbf9a6f,taxable,standard
0f2c9a93eea6,taxable,standard
9da187a7a191,taxable,standard
2f29b6e3abc6,taxable,standard
1e1d184167ca,taxable,standard
0e095e054ee9,taxable,standard
97af4fb322bb,taxable,standard
5680522b8e2b,taxable,standard
2b6d65b9a944,taxable,standard
4f284803bd09,taxable,standard
c44e503833b6,taxable,standard
82c2559140b9,taxable,standard
160c88652d47,taxable,standard
b20bb95ab626,taxable,standard
52292e0c763f,taxable,standard
9a3d458322d7,taxable,standard
a42a596fc71e,taxable,standard
0188e8b8b014,taxable,standard
ae5e3ce40e04,taxable,standard
285ab9448d27,taxable,standard
a01610228fe9,taxable,standard
33ceb07bf4ee,taxable,standard
c8ba76c27926,taxable,standard
a4d2f0d23dcc,taxable,standard
6a61d423d02a,taxable,standard
2715518c8759,taxable,standard
3210ddbeaa16,taxable,standard
c4851e8e2644,taxable,standard
eb86d510361f,taxable,standard
310ce61c90f3,taxable,standard
4122cb13c7a4,taxable,standard
6c14da109e29,taxable,standard
e53a0a2978c2,taxable,standard
e034fb6b66aa,taxable,standard
81dc9bdb52d0,taxable,standard
9996535e0725,taxable,standard
7bccfde7714a,taxable,standard
a9eb812238f7,taxable,standard
d38901788c53,taxable,standard
b3ba8f1bee12,taxable,standard
a9078e865336,taxable,standard
1c65cef3dfd1,taxable,standard
2de5d16682c3,taxable,standard
e1d5be1c7f2f,taxable,standard
39e4973ba332,taxable,standard
2ba8698b7943,taxable,standard
81e5f81db77c,taxable,standard
838e8afb1ca3,taxable,standard
a284df1155ec,taxable,standard
cd758e8f59df,taxable,standard
26588e932c7c,taxable,standard
68a83eeb494a,taxable,standard
f4573fc71c73,taxable,standard
17326d10d511,taxable,standard
dc4c44f624d6,taxable,standard
7eb3c8be3d41,taxable,standard
6c8dba7d0df1,taxable,standard
193002e66875,taxable,standard
e00406144c1e,taxable,standard
c850371fda68,taxable,standard
c1e39d912d21,taxable,standard
7810ccd41bf2,taxable,standard
e702e51da2c0,taxable,standard
bb04af0f7eca,taxable,standard
fb60d411a5c5,taxable,standard
ab1a4d0dd4d4,taxable,standard
995665640dc3,taxable,standard
da11e8cd1811,taxable,standard
d94e18a8adb4,taxable,standard
1cecc7a77928,taxable,standard
018b59ce1fd6,taxable,standard
242c100dc94f,taxable,standard
4079016d9402,taxable,standard
0e9fa1f3e9e6,taxable,standard
0829424ffa0d,taxable,standard
70222949cc0d,taxable,standard
71f6278d140a,taxable,standard
459a4ddcb586,taxable,standard
7c82fab8c8f8,taxable,standard
84438b7aae55,taxable,standard
dc87c1374931,taxable,standard
2812e5cf6d8f,taxable,standard
286674e3082f,taxable,standard
a0833c8a1817,taxable,standard
6f3e29a35278,taxable,standard
2df45244f093,taxable,standard
d282ef263719,taxable,standard
5caf41d62364,taxable,standard
fd5c905bcd8c,taxable,standard
7940ab474683,taxable,standard
a0872cc5b5ca,taxable,standard
4476b929e30d,taxable,standard
535ab76633d9,taxable,standard
7bb060764a81,taxable,standard
f09696910bdd,taxable,standard
dfd7468ac613,taxable,standard
f3f1b7fc5a87,taxable,standard
c70daf247944,taxable,standard
17fafe5f6ce2,taxable,standard
4c22bd444899,taxable,standard
01e9565cecc4,taxable,standard
fe51510c80bf,taxable,standard
e077e1a544ee,taxable,standard
28e209b61a52,taxable,standard
ff49cc40a889,taxable,standard
8edd72158ccd,taxable,standard
9cb67ffb5955,taxable,standard
3d779cae2d46,taxable,standard
e48e13207341,taxable,standard
05311655a15b,taxable,standard
d10ec7c16cbe,taxable,standard
4f87658ef0de,taxable,standard
33ebd5b07dc7,taxable,standard
5e1b18c4c6a6,taxable,standard
674bfc5f6b72,taxable,standard
a50abba8132a,taxable,standard
86109d400f0e,taxable,standard
82965d4ed815,taxable,standard
0e55666a4ad8,taxable,standard
c73dfe6c630e,taxable,standard
bcc0d4002887,taxable,standard
83adc9225e4d,taxable,standard
8d3369c4c086,taxable,standard
fb508ef074ee,taxable,standard
cf9a242b70f4,taxable,standard
a9be4c2a4041,taxable,standard
9683cc5f8956,taxable,standard
effc299a1add,taxable,standard
cf1f78fe923a,taxable,standard
6a5889bb0190,taxable,standard
a223c6b3710f,taxable,standard
4e0d67e54ad6,taxable,standard
cd0dce8fca26,taxable,standard
5ca3e9b122f6,taxable,standard
86e8f7ab32cf,taxable,standard
363763e5c3dc,taxable,standard
4fa7c6253611,taxable,standard
0c0a7566915f,taxable,standard
2bd7f907b7f5,taxable,standard
359f38463d48,taxable,standard
7f53f8c6c730,taxable,standard
c08268196360,taxable,standard
ad3019b85614,taxable,standard
f016e59c7ad8,taxable,standard
14d9e8007c9b,taxable,standard
9701a1c165dd,taxable,standard
4edaa105d5f5,taxable,standard
ffeed84c7cb1,taxable,standard
b24d516bb65a,taxable,standard
,taxable,standard
,taxable,standard
a51fb975227d,taxable,standard
996009f23740,taxable,standard
f93882cbd8fc,taxable,standard
f29b38f160f8,taxable,standard
93fb9d4b16aa,taxable,standard
76cf99d3614e,taxable,standard
1ee3dfcd8a06,taxable,standard
dc960c46c38b,taxable,standard
bb7946e7d85c,taxable,standard
50905d7b2216,taxable,standard
2a50e9c2d6b8,taxable,standard
f9be311e65d8,taxable,standard
4671aeaf49c7,taxable,standard
3546ab441e56,taxable,standard
8b0dc65f996f,taxable,standard
af4732711661,taxable,standard
c26820b8a4c1,taxable,standard
861dc9bd7f4e,taxable,standard
3e313b9badf1,taxable,standard
ee8374ec4e4a,taxable,standard
b8c27b7a1c45,taxable,standard
6c1da886822c,taxable,standard
0e3a37aa85a1,taxable,standard
81ca0262c82e,taxable,standard
e56b06c51e10,taxable,standard
70feb62b69f1,taxable,standard
8d9a0adb7c20,taxable,standard
bad5f33780c4,taxable,standard
ea8fcd92d595,taxable,standard
d1ee59e20ad0,taxable,standard
f52378e14237,taxable,standard
d82118376df3,taxable,standard
b8c37e33defd,taxable,standard
aa68c75c4a77,taxable,standard
fed33392d3a4,taxable,standard
2387337ba1e0,taxable,standard
9246444d94f0,taxable,standard
d7322ed717de,taxable,standard
1587965fb4d4,taxable,standard
31b3b31a1c2f,taxable,standard
f33ba15effa5,taxable,standard
6b180037abbe,taxable,standard
298923c81900,taxable,standard
08fe2621d8e7,taxable,standard
5d616dd38211,taxable,standard
ef50c335cca9,taxable,standard
65cc2c8205a0,taxable,standard
0768281a05da,taxable,standard
3806734b256c,taxable,standard
84d2004bf28a,taxable,standard
e515df0d202a,taxable,standard
afdec7005cc9,taxable,standard
