SKU,Name,Tax status,Tax class
fe000001,High Performance Ceiling Fans - Premium Fans -Air Max - Brown Golden - 48 Inch,taxable,standard
fe000002,High Performance Ceiling Fans - Premium Fans -Air Max - Ivory - 48 Inch,taxable,standard
fe000003,High Performance Ceiling Fans - Premium Fans -Air Max - Ivory Brown - 48 Inch,taxable,standard
fe000004,High Performance Ceiling Fans - Premium Fans -Air Max - White - 48 Inch,taxable,standard
fe000005,High Performance Ceiling Fans - Premium Fans -Air Max - White Silver - 48 Inch,taxable,standard
fe000006,Smart Home Appliances- Kitchen Helpers Â– Hand Blender with Chopper  - HHB-177E EC - Majestic Yellow,taxable,standard
fe000007,Smart Home Appliances- Kitchen Helpers Â– Hand Blender with Chopper  - HHB-177E WOS - Majestic Yellow,taxable,standard
fe000008,Smart Home Appliances- Kitchen Helpers Â– Hand Blender with Chopper  - HHB-177E WOS - Violet,taxable,standard
fe000009,Smart Home Appliances- Kitchen Helpers Â– Hand Blender with Chopper  - HHB-177E WOS - Empire Red,taxable,standard
fe000010,Smart Home Appliances- Kitchen Helpers Â– Hand Blender with Chopper  - HHB-177E WOS - Tangerine,taxable,standard
fe000011,Smart Home Appliances- Kitchen Helpers Â– Hand Blender with Chopper  - HHB-177E WOS - Onyx Black,taxable,standard
fe000012,Smart Home Appliances- Kitchen Helpers Â– Hand Blender with Chopper  - HHB-177E WOS - Cran Berry,taxable,standard
fe000013,Smart Home Appliances- Kitchen Helpers Â– Hand Blender - HHB-187E  - Majestic Yellow,taxable,standard
fe000014,Smart Home Appliances- Kitchen Helpers Â– Hand Blender - HHB-187E  - White,taxable,standard
fe000015,Smart Home Appliances- Kitchen Helpers Â– Hand Blender - HHB-187E  - Cran Berry,taxable,standard
fe000016,Smart Home Appliances- Kitchen Helpers Â– Hand Blender With Hand Mixer - HHB-187E HM - White,taxable,standard
fe000017,Smart Home Appliances- Kitchen Helpers - Mixer Grinder  - KITCHEN Queen - White,taxable,standard
fe000018,High Performance Fans - Pedestal Fans -OPF 3207 - 1250 RPM -Gun Metal - 16 Inch,taxable,standard
fe000019,High Performance Fans - Table Fans  - OTF-3337 1250 RPM - Baby Blue,taxable,standard
fe000020,High Performance Fans - Table Fans  - OTF-3337 1250 RPM - Gun Metal,taxable,standard
fe000021,Time Piece - Alarm Clock - Buzzer Alarm  - TBB-127 - Apricot,taxable,standard
fe000022,Time Piece - Alarm Clock - Buzzer Alarm  - TBB-137 - Apricot,taxable,standard
fe000023,Time Piece - Alarm Clock - Buzzer Alarm  - TBB-157 - Apricot,taxable,standard
fe000024,Time Piece - Alarm Clock - Snooze Buzzer Alarm  - TBZL-167 - Burgendy,taxable,standard
fe000025,Time Piece - Alarm Clock - Musical Alarm  - TBS-177 - Green,taxable,standard
fe000026,Time Piece - Alarm Clock - Buzzer Alarm  - TBB-207 - Burgendy,taxable,standard
fe000027,Time Piece - Alarm Clock - Buzzer Alarm  - TBB-307 - Apricot,taxable,standard
fe000028,Time Piece - Alarm Clock - Buzzer Alarm  - TBB-317 - Burgendy,taxable,standard
fe000029,Time Piece - Alarm Clock - Musical Alarm  - TBSZL-877 - White,taxable,standard
fe000030,Time Piece - Alarm Clock - Musical Alarm  - TBSZL-877 - Black,taxable,standard
fe000031,Time Piece - Alarm Clock - Musical Alarm  - TBML-867 - Black,taxable,standard
fe000032,Time Piece - Alarm Clock - Buzzer Alarm  - TBB-847 - Black,taxable,standard
fe000033,Time Piece - Alarm Clock - Buzzer Alarm  - TBB-767 - Purple,taxable,standard
fe000034,Time Piece - Alarm Clock - Buzzer Alarm  - TBB-747 - Apricot,taxable,standard
fe000035,Time Piece - Alarm Clock - Musical Alarm  - TBSL-687 - Carries,taxable,standard
fe000036,Time Piece - Alarm Clock - Snooze Buzzer Alarm  - TBZL-667 - Baby Blue,taxable,standard
fe000037,Time Piece - Alarm Clock - Musical Alarm  - TBSLF-657 - Golden,taxable,standard
fe000038,Time Piece - Alarm Clock - Snooze Buzzer Alarm  - TBZLF-657 - Golden,taxable,standard
fe000039,Time Piece - Alarm Clock - Bell Alarm  - TBM-647 - Red,taxable,standard
fe000040,Time Piece - Alarm Clock - Buzzer Alarm  - TBB-647 - Red,taxable,standard
fe000041,Time Piece - Alarm Clock - Digital Alarm  - TBZLL-627 DX - Red,taxable,standard
fe000042,Time Piece - Alarm Clock - Snooze Buzzer Alarm  - TBZL-617 - Red,taxable,standard
fe000043,Time Piece - Alarm Clock - Snooze Buzzer Alarm  - TBZL-607 - Red,taxable,standard
fe000044,Time Piece - Alarm Clock - Bell Alarm  - TBM-437 - Black,taxable,standard
fe000045,Time Piece - Alarm Clock - Buzzer Alarm  - TBB-427 - Black,taxable,standard
fe000046,Time Piece - Alarm Clock - Buzzer Alarm  - TBB-407 - Silver,taxable,standard
fe000047,Time Piece - Alarm Clock - Digital Alarm  - TAC-387 - Silver,taxable,standard
fe000048,Time Piece - Alarm Clock - Buzzer Alarm  - TBB-207 (N.G.) - Burgendy,taxable,standard
fe000049,Time Piece - Alarm Clock - Buzzer Alarm  - TBB-207 (4.5 V) - Burgendy,taxable,standard
fe000050,Time Piece - Alarm Clock - Buzzer Alarm  - TBB-377 - Red,taxable,standard
fe000051,Time Piece - Alarm Clock - Snooze Buzzer Alarm  - TBZL-367 - Red,taxable,standard
fe000052,Time Piece - Alarm Clock - Buzzer Alarm  - TBB-357 - Burgendy,taxable,standard
fe000053,Time Piece - Alarm Clock - Buzzer Alarm  - TBB-347 - Apricot,taxable,standard
fe000054,Time Piece - Alarm Clock - Buzzer Alarm  - TBB-327 - Orange,taxable,standard
fe000055,Wall Clock - Simple Clock  - 1947 - White,taxable,standard
fe000056,Wall Clock - Simple Clock  - 1947 - Ivory,taxable,standard
fe000057,Wall Clock - Simple Clock  - 387 -Brown,taxable,standard
fe000058,Wall Clock - Simple Clock  - 421 -Brown,taxable,standard
fe000059,Wall Clock - Simple Clock  - 1207 - Brown,taxable,standard
fe000060,Wall Clock - Simple Clock  - 1397 - Blue,taxable,standard
fe000061,Wall Clock - Simple Clock  - 1947 - Grey,taxable,standard
fe000062,Wall Clock - Picture Dial Clock  - 2807 PD - Pink,taxable,standard
fe000063,Wall Clock - Designer Clock  - 2787 - Metallic ,taxable,standard
fe000064,Wall Clock - Designer Clock  - 3077 -  Brown,taxable,standard
fe000065,Wall Clock - Designer Clock  - 3087 -  R Brown,taxable,standard
fe000066,Wall Clock - Designer Clock  - 3087 -  R Black,taxable,standard
fe000067,Wall Clock - Simple Clock  - 5057  - Orange,taxable,standard
fe000068,Wall Clock - Simple Clock  - 5057  -PO-Red,taxable,standard
fe000069,Wall Clock - Simple Clock  - 5057  - Pink,taxable,standard
fe000070,Wall Clock - Simple Clock  - 5057  - Royal blue,taxable,standard
fe000071,Wall Clock - Simple Clock  - 5057  - Yellow,taxable,standard
fe000072,Wall Clock - Simple Clock  - 5047  -A -White,taxable,standard
fe000073,Wall Clock - Simple Clock  - 5047  -B -White,taxable,standard
fe000074,Wall Clock - Simple Clock  - 5047  -C -White,taxable,standard
fe000075,Wall Clock - Simple Clock  - 5047  -D -White,taxable,standard
fe000076,Wall Clock - Fancy Clock  - 3067  - Orange,taxable,standard
fe000077,Wall Clock - Fancy  Clock  - 3067  -PO-Red,taxable,standard
fe000078,Wall Clock - Fancy  Clock  - 3067  - Pink,taxable,standard
fe000079,Wall Clock - Fancy  Clock  - 3067  - Royal blue,taxable,standard
fe000080,Wall Clock - Fancy  Clock  - 3067  - Yellow,taxable,standard
fe000081,Wall Clock - Fancy  Clock  -  7067  -   Mahogany,taxable,standard
fe000082,Wall Clock - Fancy  Clock  -  7067  -   Mapal wood,taxable,standard
fe000083,Wall Clock - Fancy  Clock  -  7067  - Teak wood,taxable,standard
fe000084,Wall Clock - Fancy  Clock  -  7067  - Oak wood,taxable,standard
fe000085,Wall Clock - Fancy  Clock  -  7067  -  Light Oak wood,taxable,standard
fe000086,Wall Clock - Fancy  Clock  -  8067  -   Mahogany,taxable,standard
fe000087,Wall Clock - Fancy  Clock  -  8067  -   Mapal wood,taxable,standard
fe000088,Wall Clock - Fancy  Clock  -  8067  - Teak wood,taxable,standard
fe000089,Wall Clock - Fancy  Clock  -  8067  - Oak wood,taxable,standard
fe000090,Wall Clock - Fancy  Clock  -  8077  -   Mahogany,taxable,standard
fe000091,Wall Clock - Fancy  Clock  -  8077  -   Mapal wood,taxable,standard
fe000092,Wall Clock - Fancy  Clock  -  8077  - Teak wood,taxable,standard
fe000093,Wall Clock - Fancy  Clock  -  8077  - Oak wood,taxable,standard
fe000094,Wall Clock - Designer Clock  - 5067 - Silver ,taxable,standard
fe000095,Wall Clock - Designer Clock  - 5067 - Nevi Blue,taxable,standard
fe000096,Wall Clock - Designer Clock  - 2997 -Silver   ,taxable,standard
fe000097,Wall Clock - Designer Clock  - 2997 -Golden   ,taxable,standard
fe000098,Wall Clock - Designer Clock  - 5097 - Mahogany,taxable,standard
fe000099,Wall Clock - Designer Clock  - 5097 -Mapal wood,taxable,standard
fe000100,Wall Clock - Designer Clock  - 5097 -Teak wood,taxable,standard
fe000101,Wall Clock - Designer Clock  - 5097 -Oak wood,taxable,standard
fe000102,Wall Clock - Designer Clock  - 5097 -Light Oak wood,taxable,standard
fe000103,Wall Clock - Designer Clock  - 6017  -Pink,taxable,standard
fe000104,Wall Clock - Designer Clock  - 6017  - Blue,taxable,standard
fe000105,Wall Clock - Designer Clock  - 6017  - Green,taxable,standard
fe000106,Wall Clock - Designer Clock  - 6067  - Mahogany,taxable,standard
fe000107,Wall Clock - Designer Clock  - 6067  - Mapal wood,taxable,standard
fe000108,Wall Clock - Designer Clock  - 6067  - Teak wood,taxable,standard
fe000109,Wall Clock - Designer Clock  - 6067  - Oak wood,taxable,standard
fe000110,Wall Clock - Designer Clock  - 4077  - Silver,taxable,standard
fe000111,Wall Clock - Designer Clock  - 4077  - Golden,taxable,standard
fe000112,Wall Clock - Designer Clock  - 4047  - Brown ,taxable,standard
fe000113,Wall Clock - Designer Clock  - 4047  - Dark Brown ,taxable,standard
fe000114,Wall Clock - Designer Clock  -  3017 -  White,taxable,standard
fe000115,Wall Clock - Designer Clock  -  3017 -  Ivory,taxable,standard
fe000116,Wall Clock - Designer Clock  -  3017 -  Brown,taxable,standard
fe000117,Wall Clock - Designer Clock  -  3017 -  Mahendi,taxable,standard
fe000118,Wall Clock - Designer Clock  -  3017 -  Nevi Blue,taxable,standard
fe000119,Wall Clock - Designer Clock  -  2537 -  White,taxable,standard
fe000120,Wall Clock - Designer Clock  -  2537 -  Black,taxable,standard
fe000121,Wall Clock - Designer Clock  -  2477 -  White,taxable,standard
fe000122,Wall Clock - Designer Clock  -  2477 -  Ivory,taxable,standard
fe000123,Wall Clock - Designer Clock  -  9077 -  White,taxable,standard
fe000124,Wall Clock - Designer Clock  -  9077 -  Black,taxable,standard
fe000125,Wall Clock - Designer Clock  -  9077 -  Ivory,taxable,standard
fe000126,Wall Clock - Designer Clock  - 3007  - Mapal wood,taxable,standard
fe000127,Wall Clock - Designer Clock  - 3007  - Teak wood,taxable,standard
fe000128,Wall Clock - Designer Clock  - 3007  - Oak wood,taxable,standard
fe000129,Wall Clock - Designer Clock  - 3037 - Brown,taxable,standard
fe000130,Wall Clock - Designer Clock  - 3037  - Orange,taxable,standard
fe000131,Wall Clock - Designer Clock  - 3047 - Brown,taxable,standard
fe000132,Wall Clock - Designer Clock  - 3047  - R Brown,taxable,standard
fe000133,Wall Clock - Designer Clock  - 3047  -  White,taxable,standard
fe000134,Wall Clock - Designer Clock  - 3047  -  R White,taxable,standard
fe000135,Wall Clock - Designer Clock  - 6007  - Mapal wood,taxable,standard
fe000136,Wall Clock - Designer Clock  - 6007  - Teak wood,taxable,standard
fe000137,Wall Clock - Designer Clock  -  6007  - Oak wood,taxable,standard
fe000138,Wall Clock - Designer Clock  -  D.S.-247  - Black,taxable,standard
fe000139,Wall Clock - Office Clock  - 5077- Ivory,taxable,standard
fe000140,Wall Clock - Office Clock  - 5077 - White,taxable,standard
fe000141,Wall Clock - Office Clock  - 467  LED - White,taxable,standard
fe000142,Wall Clock - Office Clock  - 467  LED -  Green,taxable,standard
fe000143,Wall Clock - Office Clock  - 467  LED -  Pink,taxable,standard
fe000144,Wall Clock - Office Clock  - 467  LED - Orange,taxable,standard
fe000145,Wall Clock - Office Clock  - 467  LED - Red,taxable,standard
fe000146,Wall Clock - Office Clock  - 1197  LED - White,taxable,standard
fe000147,Wall Clock - Office Clock  - 1197  LED -  Green,taxable,standard
fe000148,Wall Clock - Office Clock  - 1197  LED -  Pink,taxable,standard
fe000149,Wall Clock - Office Clock  - 1197 LED - Orange,taxable,standard
fe000150,Wall Clock - Office Clock  - 1197  LED - Red,taxable,standard
fe000151,Wall Clock - Office Clock  - 547  - Mahogany,taxable,standard
fe000152,Wall Clock - Office Clock  - 547  - Mapal wood,taxable,standard
fe000153,Wall Clock - Office Clock  - 547  -  Teak wood,taxable,standard
fe000154,Wall Clock - Office Clock  - 547  - Oak wood,taxable,standard
fe000155,Wall Clock - Night Glow Clock  - 5087 -  White,taxable,standard
fe000156,Wall Clock - Night Glow Clock  - 5087 - Nevi Blue,taxable,standard
fe000157,Wall Clock - Night Glow Clock  - 5087 -  Brown,taxable,standard
fe000158,Wall Clock - Night Glow Clock  - 5087 - Black,taxable,standard
fe000159,Wall Clock - Vintage series Clock  - 5007 - Mahogany,taxable,standard
fe000160,Wall Clock - Vintage series Clock  - 5007 - Mapal wood,taxable,standard
fe000161,Wall Clock - Vintage series Clock  - 5007 - Teak wood,taxable,standard
fe000162,Wall Clock - Vintage series Clock  - 5007 - Oak wood,taxable,standard
fe000163,Wall Clock - Vintage series Clock  - 5007 - Light Oak wood,taxable,standard
fe000164,Wall Clock - Vintage series Clock  - 5017 - Mahogany,taxable,standard
fe000165,Wall Clock - Vintage series Clock  - 5017 - Mapal wood,taxable,standard
fe000166,Wall Clock - Vintage series Clock  - 5017 - Teak wood,taxable,standard
fe000167,Wall Clock - Vintage series Clock  - 5017 - Oak wood,taxable,standard
fe000168,Wall Clock - Vintage series Clock  - 5017 - Light Oak wood,taxable,standard
fe000169,Wall Clock - Vintage series Clock  - 5037 - Mahogany,taxable,standard
fe000170,Wall Clock - Vintage series Clock  - 5037 - Mapal wood,taxable,standard
fe000171,Wall Clock - Vintage series Clock  - 5037 - Teak wood,taxable,standard
fe000172,Wall Clock - Vintage series Clock  - 5037 - Oak wood,taxable,standard
fe000173,Wall Clock - Vintage series Clock  - 5037 - Light Oak wood,taxable,standard
fe000174,Wall Clock - Vintage series Clock  - 7017 - Mahogany,taxable,standard
fe000175,Wall Clock - Vintage series Clock  - 7017 - Mapal wood,taxable,standard
fe000176,Wall Clock - Vintage series Clock  - 7017 - Teak wood,taxable,standard
fe000177,Wall Clock - Vintage series Clock  - 7017 - Oak wood,taxable,standard
fe000178,Wall Clock - Vintage series Clock  - 7037 - Mahogany,taxable,standard
fe000179,Wall Clock - Vintage series Clock  - 7037 - Mapal wood,taxable,standard
fe000180,Wall Clock - Vintage series Clock  - 7037 - Teak wood,taxable,standard
fe000181,Wall Clock - Vintage series Clock  - 7037 - Oak wood,taxable,standard
fe000182,Wall Clock - Vintage series Clock  - 7047 - Red,taxable,standard
fe000183,Wall Clock - Vintage series Clock  - 7047 - Apricoat,taxable,standard
fe000184,Wall Clock - Vintage series Clock  - 7047 -Brown,taxable,standard
fe000185,Wall Clock - Vintage series Clock  - 7047 -  Wallnut,taxable,standard
fe000186,Wall Clock - Vintage series Clock  - 7047 - Orange,taxable,standard
fe000187,Wall Clock - Vintage series Clock  - 7077  - Mahogany,taxable,standard
fe000188,Wall Clock - Vintage series Clock  -  7077 - Mapal wood,taxable,standard
fe000189,Wall Clock - Vintage series Clock  - 7077 - Teak wood,taxable,standard
fe000190,Wall Clock - Vintage series Clock  - 7077 - Oak wood,taxable,standard
fe000191,Wall Clock - Vintage series Clock  - 7077 - Light Oak wood,taxable,standard
fe000192,Wall Clock - Vintage series Clock  - 7097 - Mahogany,taxable,standard
fe000193,Wall Clock - Vintage series Clock  - 7097 - Mapal wood,taxable,standard
fe000194,Wall Clock - Vintage series Clock  - 7097 - Teak wood,taxable,standard
fe000195,Wall Clock - Vintage series Clock  - 7097 - Oak wood,taxable,standard
fe000196,Wall Clock - Vintage series Clock  - 8047  - Mahogany,taxable,standard
fe000197,Wall Clock - Vintage series Clock  -  8047 - Mapal wood,taxable,standard
fe000198,Wall Clock - Vintage series Clock  - 8047 - Teak wood,taxable,standard
fe000199,Wall Clock - Vintage series Clock  - 8047 - Oak wood,taxable,standard
fe000200,Wall Clock - Vintage series Clock  - 8047 - Light Oak wood,taxable,standard
fe000201,Wall Clock - Vintage series Clock  - 8057  - Mahogany,taxable,standard
fe000202,Wall Clock - Vintage series Clock  -  8057 - Mapal wood,taxable,standard
fe000203,Wall Clock - Vintage series Clock  - 8057 - Teak wood,taxable,standard
fe000204,Wall Clock - Vintage series Clock  - 8057 - Oak wood,taxable,standard
fe000205,Wall Clock - Vintage series Clock  - 8057 - Light Oak wood,taxable,standard
fe000206,Wall Clock - Vintage series Clock  - 8087  - Mahogany,taxable,standard
fe000207,Wall Clock - Vintage series Clock  -  8087 - Mapal wood,taxable,standard
fe000208,Wall Clock - Vintage series Clock  - 8087 - Teak wood,taxable,standard
fe000209,Wall Clock - Vintage series Clock  - 8087 - Oak wood,taxable,standard
fe000210,Wall Clock - Vintage series Clock  - 8087 - Light Oak wood,taxable,standard
fe000211,Wall Clock - Vintage series Clock  - 8097  - Mahogany,taxable,standard
fe000212,Wall Clock - Vintage series Clock  -  8097 - Mapal wood,taxable,standard
fe000213,Wall Clock - Vintage series Clock  - 8097 - Teak wood,taxable,standard
fe000214,Wall Clock - Vintage series Clock  - 8097 - Oak wood,taxable,standard
fe000215,Wall Clock - Vintage series Clock  - 8097 - Light Oak wood,taxable,standard
fe000216,Wall Clock - Digital Clock - Calendar Clock  - DC-047 - Black,taxable,standard
fe000217,Wall Clock - Digital Clock - Calendar Clock  - DC-087 - Black,taxable,standard
fe000218,Wall Clock - Digital Clock - Calendar Clock  - LCD - 130  - Silver,taxable,standard
fe000219,Wall Clock - Digital Clock - Calendar Clock  - LCD - 130  - Golden,taxable,standard
fe000220,Wall Clock - Digital Clock - Calendar Clock  - DC - 067  -  ALL PICTURE,taxable,standard
fe000221,Wall Clock - Fancy Pendulum Clock  -  5027 - Mapal wood,taxable,standard
fe000222,Wall Clock - Fancy Pendulum Clock  -  5027 - Teak wood,taxable,standard
fe000223,Wall Clock - Fancy Pendulum Clock  -  5027 -  Oak wood,taxable,standard
